^D:\STADY\SBUE4J\SKILLBOXUE4J\X64\DEBUG\SKILLBOXUE4J.OBJ
D:\STADY\SBUE4J\SKILLBOXUE4J\X64\DEBUG\SKILLBOXUE4J.EXE
D:\STADY\SBUE4J\SKILLBOXUE4J\X64\DEBUG\SKILLBOXUE4J.ILK
D:\STADY\SBUE4J\SKILLBOXUE4J\X64\DEBUG\SKILLBOXUE4J.PDB
